[{
  "_id": {
    "$oid": "60bc8c6cb27d08e4593d3711"
  },
  "name": "Romantic Package",
  "title": "Give your partner a fun surprise.",
  "details": "If you enjoy a romantic getaway or just want to indulge in extra luxury, get rose petals in your room and luxury bath salt to create a great atmosphere when you check-in with us. Click \"Take Deal\" to request this offer now.",
  "price": 35,
  "asset": "/package_romantic.png",
  "isActive": true
},{
  "_id": {
    "$oid": "60bc8e28f8a6fb01959ca7ff"
  },
  "name": "Waterview room",
  "title": "A standard room but with waterfront view",
  "details": "If you enjoy a Waterview room or just want to indulge in extra luxury, get rose petals in your room. Click \"Take Deal\" to request this offer now.",
  "price": 312,
  "asset": "/package_waterviewroom.png",
  "isActive": true
},{
  "_id": {
    "$oid": "60bc8e4ff8a6fb01959ca800"
  },
  "name": "Full body massage",
  "title": "Give your partner a fun surprise.",
  "details": "Full body massage or just want to indulge in extra luxury, get rose petals in your room and luxury bath salt to create a great atmosphere when you check-in with us. Click \"Take Deal\" to request this offer now.",
  "price": 75,
  "asset": "/package_fullbodymassage.png",
  "isActive": true
},{
  "_id": {
    "$oid": "60c250c00ae17831facace51"
  },
  "name": "Roomservice",
  "title": "",
  "details": "",
  "price": 55,
  "asset": "/package_roomservice.png",
  "isActive": true
}]